…
We have two missing values in the `race` variable, out of a total of 330
people, and given that this only affects less than 1% of the subjects in
all, I think we’ll just omit those cases for questions 1-3.

``` r
hw2_q13 <- hw2_small %>% na.omit()

hw2_q13
```

    # A tibble: 328 x 5
       subject income race     sex   insurance 
       <chr>    <dbl> <chr>    <chr> <chr>     
     1 A001     56600 Black/AA M     Medicaid  
     2 A002     41900 Black/AA M     Medicaid  
     3 A004     18000 Black/AA F     Medicare  
     4 A005     29400 Black/AA F     Medicare  
     5 A006     23700 Black/AA M     Commercial
     6 A007     29000 Black/AA M     Medicaid  
     7 A008     29100 Black/AA F     Medicare  
     8 A009     28000 Black/AA F     Commercial
     9 A010     57100 Black/AA M     Commercial
    10 A011     13700 Black/AA F     Medicaid  
    # ... with 318 more rows
…
