Ohio Medicaid Assessment Survey 2017
…
miss_var_summary(omas17_cleaned)

# A tibble: 27 x 3
   variable     n_miss pct_miss
   <chr>         <int>    <dbl>
 1 food_12mo      1137    3.54 
 2 marital        1085    3.38 
 3 avoid_care      766    2.38 
 4 usual_care      640    1.99 
 5 job_today       536    1.67 
 6 ins_medicaid    474    1.47 
 7 mental31        418    1.30 
 8 ins_private     417    1.30 
 9 er_visits       346    1.08 
10 region          289    0.899
# ... with 17 more rows
…
