…
First, let’s look at the data immediately after import, to see if any of
the values we observe don’t match what we’ve been led to believe from
the description above. Specifically, we want to verify that we have
1,576 observations at the start.

``` r
nnyfs1.raw <- read.csv("data/nnyfs1.csv") %>% tbl_df

nnyfs1.raw
```

    # A tibble: 1,576 x 7
        SEQN RIASEX RIDAGEYR RIDRETH1 INDFMPIR MCQ010 PAQ706
       <dbl>  <int>    <int>    <int>    <dbl>  <int>  <int>
     1 71917      2       15        4     0.21      2      3
     2 71918      2        8        4     5         1      5
     3 71919      2       14        3     5         2      3
     4 71920      2       15        3     0.87      1      3
     5 71921      1        3        3     4.34      2      7
     6 71922      1       12        2     5         2      2
     7 71923      1       12        3     5         2      5
     8 71924      2        8        5     2.74      2      3
     9 71925      1        7        1     0.46      2      7
    10 71926      1        8        4     1.57      2      7
    # ... with 1,566 more rows
…
