…
Combining the Data
------------------

``` r
bradley_raw <- bind_rows(dat_cases, dat_controls)
bradley_raw$subject <- sample(1:nrow(bradley_raw))

bradley <- bradley_raw %>%
    select(subject, everything()) %>%
    arrange(subject)

bradley
```

    ## # A tibble: 1,374 x 7
    ##    subject status    age sex    race_eth  married location
    ##      <int> <chr>   <dbl> <chr>  <chr>       <dbl> <chr>   
    ##  1       1 Case      106 Male   non-white       1 ICU     
    ##  2       2 Case       71 Female white           1 Other   
    ##  3       3 Control    67 Male   white           1 Bed     
    ##  4       4 Case       68 Male   white           0 Bed     
    ##  5       5 Control    57 Male   white           1 Bed     
    ##  6       6 Control    67 Male   white           1 Bed     
    ##  7       7 Case       56 Male   white           1 Bed     
    ##  8       8 Control    85 Male   white           0 Bed     
    ##  9       9 Case       79 Male   white           1 ICU     
    ## 10      10 Control    79 Male   white           0 ICU     
    ## # ... with 1,364 more rows
…
