…
Size
----

### `wtkg3` is `weight_kg`

`wtkg3` is computed by CDC, as the respondent's weight in kilograms with two implied decimal places. We calculate the actual weight in kg, with the following:

``` r
smart_2017_oh_working <- smart_2017_oh_working %>% 
    mutate(weight_kg = wtkg3/100)

smart_2017_oh_working %>% count(wtkg3, weight_kg)# %>% tail()
```

    # A tibble: 269 x 3
       wtkg3 weight_kg     n
       <dbl>     <dbl> <int>
     1  3175      31.8     1
     2  3402      34.0     1
     3  3629      36.3     3
     4  3765      37.6     1
     5  3856      38.6     2
     6  3901      39.0     2
     7  3992      39.9     2
     8  4037      40.4     2
     9  4082      40.8     3
    10  4173      41.7     1
    # ... with 259 more rows
…
Note that there is one impossible value of 575 in the data set. We'll make that an NA, and we'll also make NA any heights below 3 feet, or above 2.24 meters. Specifically, we calculate the actual height in meters, with the following:

``` r
smart_2017_oh_working <- smart_2017_oh_working %>%
    mutate(height_m = case_when(
        height3 >= 300 & height3 <= 511 ~ round((12*floor(height3/100) + (height3 - 100*floor(height3/100)))*0.0254,2),
        height3 >= 600 & height3 <= 711 ~ round((12*floor(height3/100) + (height3 - 100*floor(height3/100)))*0.0254,2),
        height3 >= 9000 & height3 <= 9224 ~ ((height3 - 9000)/100)))

smart_2017_oh_working %>% count(height3, height_m) # %>% tail()
```

    # A tibble: 30 x 3
       height3 height_m     n
         <dbl>    <dbl> <int>
     1     405     1.35     2
     2     407     1.4      1
     3     408     1.42     7
     4     409     1.45    15
     5     410     1.47    19
     6     411     1.5     95
     7     500     1.52   215
     8     501     1.55   211
     9     502     1.57   434
    10     503     1.6    514
    # ... with 20 more rows

### `bmi` is calculated from `height_m` and `weight_kg`

We'll calculate body-mass index from height and weight.

``` r
smart_2017_oh_working <- smart_2017_oh_working %>% 
    mutate(bmi = round(weight_kg/(height_m)^2,2))

smart_2017_oh_working %>% count(height_m, weight_kg, bmi)# %>% tail()
```

    # A tibble: 1,700 x 4
       height_m weight_kg   bmi     n
          <dbl>     <dbl> <dbl> <int>
     1     1.35      39.0  21.4     1
     2     1.35      52.2  28.6     1
     3     1.4       89.8  45.8     1
     4     1.42      31.8  15.8     1
     5     1.42      45.4  22.5     1
     6     1.42      55.8  27.7     1
     7     1.42      58.5  29.0     1
     8     1.42      59.9  29.7     1
     9     1.42      60.8  30.1     1
    10     1.42      73.5  36.4     1
    # ... with 1,690 more rows
…
We're going to convert this to a single numeric value. Answers in days per week (in the past 7 days) will be converted (after rounding) to days in the past 30. This is a little bit of a mess, really, but we can do it.

``` r
smart_2017_oh_working <- smart_2017_oh_working %>% 
    mutate(alcdays = as.numeric(alcday5)) %>%
    mutate(alcdays = replace(alcdays, alcdays == 888, 0),
           alcdays = replace(alcdays, alcdays %in% c(777, 999), NA)) %>%
    mutate(alcdays = case_when(alcday5 > 199 & alcday5 < 231 ~ alcday5 - 200,
                               alcday5 > 100 & alcday5 < 108 ~ round((alcday5 - 100)*30/7,0),
                               TRUE ~ alcdays))

smart_2017_oh_working %>% count(alcday5, alcdays)
```

    # A tibble: 38 x 3
       alcday5 alcdays     n
         <dbl>   <dbl> <int>
     1     101       4   226
     2     102       9   172
     3     103      13   124
     4     104      17    65
     5     105      21    50
     6     106      26    15
     7     107      30    98
     8     201       1   547
     9     202       2   382
    10     203       3   201
    # ... with 28 more rows
…
